number of jobs, number of machines, time seed, machine seed, upper bound, lower bound :
           7           7  1840686215  1827454623         438         435
processing times :
 89 39 54 34 71 92 56
 19 13 81 46 91 73 27
 66 95 48 24 96 18 14
 48 46 78 94 19 68 63
 60 28 91 75 52  9  7
 33 98 37 11  2 30 38
 83 45 37 77 52 88 52
machines :
  3  2  4  7  1  6  5
  2  3  6  5  1  4  7
  1  2  6  7  3  4  5
  2  6  1  7  3  4  5
  6  4  3  5  1  2  7
  7  5  2  1  4  3  6
  2  4  5  7  6  3  1
number of jobs, number of machines, time seed, machine seed, upper bound, lower bound :
           7           7  1026771938  1312166461         449         443
processing times :
 89 65  4 82 86  9 76
 97 10 20 33 97 84 92
 62  7 77 57 78 75  9
 83  3 87  4 15 11 22
 84 56 33 35 93 72 17
 48 40 58 97 96 33 56
 22 69 64 90 61 97  9
machines :
  4  7  5  3  6  2  1
  1  6  4  7  3  2  5
  4  2  3  7  6  5  1
  4  2  5  1  3  6  7
  7  6  5  3  1  4  2
  7  6  5  1  2  3  4
  5  7  1  2  4  3  6
number of jobs, number of machines, time seed, machine seed, upper bound, lower bound :
           7           7   609471574   670843185         479         468
processing times :
 95 78  5 82 76 93 29
 52 68 50 80 84 44 62
 86 58 50 67 17 71 97
 98 57 94 62 46 72 22
 80 27 40 94 15 87 79
 44 74 46 26 69 45 47
 92 53 25 49 83 19 69
machines :
  2  6  7  5  1  3  4
  6  4  2  3  1  5  7
  4  6  5  7  3  1  2
  6  7  5  2  1  3  4
  4  6  1  2  5  7  3
  5  7  1  4  6  2  3
  7  6  2  4  5  1  3
number of jobs, number of machines, time seed, machine seed, upper bound, lower bound :
           7           7  1022295947   398226875         467         463
processing times :
 86 69 41 95 50 74 48
 61 50 21 48 97 43 47
 82 77 18 56 78 50 62
 36 87 50 65 68  9 82
 46 77 48 78 70 98 27
  4 86  6 56 37 50 32
 77 75 37 54 30 82 73
machines :
  5  3  2  7  1  4  6
  6  7  3  2  4  1  5
  6  1  7  2  4  5  3
  1  7  6  3  4  5  2
  7  3  5  2  6  1  4
  1  7  3  4  5  6  2
  1  7  3  4  2  6  5
number of jobs, number of machines, time seed, machine seed, upper bound, lower bound :
           7           7  1513073047  1250759651         419         416
processing times :
 86 90 19 62 26 23 80
 65 59  7 91 74 20 62
  4 53 56  7 95 99 45
 49 62 12 29  6 48 77
 42 27 73 33 81 38 95
 66 56 76 62 70 36 39
 55 71  8 39 51 73 36
machines :
  7  1  3  2  4  6  5
  3  4  2  6  5  1  7
  7  1  4  6  3  2  5
  1  3  5  6  7  2  4
  3  1  4  2  7  5  6
  1  4  5  3  2  6  7
  5  3  2  6  4  1  7
number of jobs, number of machines, time seed, machine seed, upper bound, lower bound :
           7           7  1612211197    95606345         460         451
processing times :
 76 87 95 20 55 88  2
 78 57 59 40 95 32 69
 63 75 87  1 25 76 61
 66 39 89 41 25 61 94
  6 59 77 91  8 46 24
 60 80 97 60 64 46  5
 76 49 27 36 93 75 95
machines :
  2  1  3  6  5  7  4
  3  5  2  7  4  1  6
  4  1  5  3  7  6  2
  7  2  5  6  4  3  1
  1  7  4  6  3  2  5
  5  3  7  4  2  1  6
  5  7  6  3  2  1  4
number of jobs, number of machines, time seed, machine seed, upper bound, lower bound :
           7           7   435024109  1118234860         435         422
processing times :
 66  9  5 98 76 94 25
 59 69 25 56 46 30 58
 15 64 81 60 84 82  6
 28 28 10 61 97 66 93
 56 59 19 10 72 78 99
 76 32 69 63 71 10 80
 95 87 48 47 46 34 31
machines :
  6  2  1  4  5  3  7
  5  3  6  7  1  2  4
  7  5  2  4  6  3  1
  7  6  5  3  1  4  2
  4  3  5  1  6  7  2
  7  4  1  2  5  3  6
  1  5  4  3  6  2  7
number of jobs, number of machines, time seed, machine seed, upper bound, lower bound :
           7           7  1760865440  1099909092         426         424
processing times :
 19 20 14 36 92 97 83
 37 55 48 42 54 80 61
 52  1 50  5 57 97 11
 33 38 68 96 79 83 27
 54 61 72 52 17 81 58
  2 21 17 93 18 98  6
 58 84 80 26 81 23 62
machines :
  3  2  7  4  6  1  5
  3  7  5  2  1  6  4
  4  6  2  1  5  7  3
  4  1  3  2  5  6  7
  7  2  3  1  4  6  5
  5  6  2  7  3  1  4
  2  4  7  6  5  1  3
number of jobs, number of machines, time seed, machine seed, upper bound, lower bound :
           7           7   122574075    10979313         460         458
processing times :
 31 71 43 67 32 72 32
 72 60 13 41 35 66 47
 46 23 94  6 73 44 15
 95 20 69 90 50 42 92
 37 51 75 68 93 86 13
 65 27 63 82 62 89 47
 17 62 64 86 31 93 92
machines :
  7  5  4  2  3  6  1
  2  7  1  5  3  4  6
  1  3  2  7  6  4  5
  4  7  5  1  2  6  3
  2  1  4  7  6  3  5
  3  7  5  6  4  1  2
  6  5  4  3  2  1  7
number of jobs, number of machines, time seed, machine seed, upper bound, lower bound :
           7           7   248031774  1685251301         400         398
processing times :
 19 94 51 86  3 42 62
  4 61 13 61 21 92 90
 18 64 35 78  4 75 86
 18 57 38 95 48  1 27
 46  6 50 92 61 54 64
 40 30 70 83 61  5 53
 21 21 89 49 65 57 84
machines :
  3  5  4  6  7  2  1
  3  6  7  4  1  5  2
  1  7  6  5  4  2  3
  7  5  4  3  1  2  6
  3  5  7  1  2  6  4
  5  1  2  3  4  6  7
  5  2  6  7  3  1  4
