1,12911
2,12911
3,12885
4,12885
5,12885
6,12885
7,12885
8,12885
9,12885
10,12866
11,12864
12,12852
13,12852
14,12852
15,12852
16,12852
17,12852
18,12852
19,12840
20,12840
21,12840
22,12840
23,12817
24,12817
25,12817
26,12817
27,12817
28,12816
29,12816
30,12816
31,12769
32,12769
33,12769
34,12769
35,12769
36,12769
37,12769
38,12769
39,12769
40,12769
41,12769
42,12751
43,12751
44,12751
45,12751
46,12745
47,12734
48,12734
49,12734
50,12734
51,12734
52,12734
53,12698
54,12698
55,12698
56,12696
57,12696
58,12696
59,12696
60,12696
61,12696
62,12664
63,12664
64,12664
65,12664
66,12664
67,12664
68,12664
69,12664
70,12664
71,12664
72,12664
73,12664
74,12664
75,12664
76,12664
77,12664
78,12653
79,12631
80,12631
81,12624
82,12624
83,12624
84,12624
85,12624
86,12602
87,12601
88,12601
89,12563
90,12563
91,12563
92,12563
93,12563
94,12563
95,12563
96,12563
97,12563
98,12563
99,12563
100,12563
