1,6445
2,6445
3,6445
4,6445
5,6445
6,6445
7,6445
8,6428
9,6428
10,6388
11,6388
12,6388
13,6388
14,6368
15,6368
16,6368
17,6350
18,6350
19,6350
20,6350
21,6350
22,6350
23,6350
24,6350
25,6298
26,6298
27,6268
28,6268
29,6268
30,6268
31,6268
32,6268
33,6268
34,6268
35,6268
36,6268
37,6268
38,6268
39,6268
40,6268
41,6268
42,6268
43,6268
44,6268
45,6268
46,6268
47,6268
48,6268
49,6268
50,6268
51,6268
52,6231
53,6231
54,6231
55,6231
56,6231
57,6231
58,6231
59,6231
60,6231
61,6231
62,6231
63,6231
64,6217
65,6217
66,6217
67,6217
68,6217
69,6217
70,6217
71,6217
72,6217
73,6216
74,6191
75,6191
76,6191
77,6191
78,6191
79,6191
80,6191
81,6191
82,6191
83,6161
84,6161
85,6161
86,6161
87,6161
88,6161
89,6161
90,6158
91,6158
92,6158
93,6158
94,6158
95,6158
96,6158
97,6158
98,6158
99,6158
100,6158
