1,13016
2,13016
3,13016
4,13008
5,13008
6,13008
7,12939
8,12939
9,12932
10,12847
11,12847
12,12774
13,12774
14,12774
15,12774
16,12774
17,12774
18,12774
19,12774
20,12774
21,12774
22,12774
23,12774
24,12774
25,12774
26,12774
27,12774
28,12774
29,12706
30,12706
31,12706
32,12699
33,12699
34,12658
35,12658
36,12658
37,12658
38,12648
39,12648
40,12606
41,12606
42,12597
43,12597
44,12597
45,12597
46,12597
47,12597
48,12597
49,12597
50,12597
51,12597
52,12597
53,12597
54,12597
55,12597
56,12574
57,12574
58,12574
59,12574
60,12574
61,12574
62,12574
63,12574
64,12574
65,12574
66,12574
67,12574
68,12546
69,12546
70,12546
71,12546
72,12546
73,12546
74,12546
75,12546
76,12546
77,12546
78,12546
79,12546
80,12546
81,12546
82,12546
83,12546
84,12546
85,12546
86,12546
87,12546
88,12546
89,12546
90,12546
91,12546
92,12525
93,12525
94,12525
95,12525
96,12525
97,12525
98,12525
99,12525
100,12525
